<?xml version="1.0" encoding="UTF-8" standalone="no"?>
<svg
   xmlns:dc="http://purl.org/dc/elements/1.1/"
   xmlns:cc="http://creativecommons.org/ns#"
   xmlns:rdf="http://www.w3.org/1999/02/22-rdf-syntax-ns#"
   xmlns:svg="http://www.w3.org/2000/svg"
   xmlns="http://www.w3.org/2000/svg"
   xmlns:sodipodi="http://sodipodi.sourceforge.net/DTD/sodipodi-0.dtd"
   xmlns:inkscape="http://www.inkscape.org/namespaces/inkscape"
   width="83.109619mm"
   height="60.942337mm"
   viewBox="0 0 235.60006 172.74993"
   version="1.1"
   id="svg54"
   sodipodi:docname="freifunk.svg"
   inkscape:version="0.92.2 2405546, 2018-03-11">
  <metadata
     id="metadata60">
    <rdf:RDF>
      <cc:Work
         rdf:about="">
        <dc:format>image/svg+xml</dc:format>
        <dc:type
           rdf:resource="http://purl.org/dc/dcmitype/StillImage" />
        <dc:title>Freifunk.net</dc:title>
      </cc:Work>
    </rdf:RDF>
  </metadata>
  <defs
     id="defs58" />
  <sodipodi:namedview
     pagecolor="#ffffff"
     bordercolor="#666666"
     borderopacity="1"
     objecttolerance="10"
     gridtolerance="10"
     guidetolerance="10"
     inkscape:pageopacity="0"
     inkscape:pageshadow="2"
     inkscape:window-width="1920"
     inkscape:window-height="1015"
     id="namedview56"
     showgrid="false"
     fit-margin-top="0"
     fit-margin-left="0"
     fit-margin-right="0"
     fit-margin-bottom="0"
     inkscape:zoom="1.0697256"
     inkscape:cx="-69.212957"
     inkscape:cy="73.567326"
     inkscape:window-x="0"
     inkscape:window-y="36"
     inkscape:window-maximized="1"
     inkscape:current-layer="svg54" />
  <title
     id="title2">Freifunk.net</title>
  <g
     id="g8"
     transform="translate(-7.2099468,-0.29682192)">
    <path
       d="M 67.45,51.55 A 60.49,60.49 0 1 1 7.21,112 60.37,60.37 0 0 1 67.45,51.55 Z"
       style="fill:#ffffff"
       id="path4"
       inkscape:connector-curvature="0" />
    <path
       d="m 156.81,0.29 c 47.51,0 86,38.67 86,86.38 0,47.71 -38.51,86.38 -86,86.38 -47.49,0 -86,-38.67 -86,-86.38 0,-47.71 38.49,-86.38 86,-86.38 z"
       style="fill:#ffffff"
       id="path6"
       inkscape:connector-curvature="0" />
  </g>
  <g
     id="g18"
     transform="translate(-7.2099468,-0.29682192)">
    <path
       d="M 67.45,163.72 A 51.68,51.68 0 1 1 118.91,112 51.63,51.63 0 0 1 67.45,163.72 Z m 0,-100.82 A 49.15,49.15 0 1 0 116.39,112 49.1,49.1 0 0 0 67.45,62.9 Z"
       style="fill:#dc0468"
       id="path10"
       inkscape:connector-curvature="0" />
    <g
       id="g16">
      <path
         d="M 156.8,164.81 C 113.88,164.81 79,129.76 79,86.68 79,43.6 113.88,8.54 156.8,8.54 v 0 c 42.92,0 77.84,35.05 77.84,78.13 0,43.08 -34.91,78.14 -77.84,78.14 z m 0,-141.15 a 63,63 0 1 0 62.72,63 62.94,62.94 0 0 0 -62.71,-63 z"
         style="fill:#dc0468"
         id="path12"
         inkscape:connector-curvature="0" />
      <path
         d="M 156.81,142 A 55.35,55.35 0 1 1 211.93,86.65 55.3,55.3 0 0 1 156.81,142 Z m 0,-108.17 A 52.82,52.82 0 1 0 209.4,86.68 52.77,52.77 0 0 0 156.81,33.85 Z"
         style="fill:#dc0468"
         id="path14"
         inkscape:connector-curvature="0" />
    </g>
  </g>
  <path
     d="m 61.540053,100.30318 -12.55,-12.600002 h -11.82 l 8.37,8.41 h -16.75 v 8.410002 h 16.75 l -8.37,8.41 h 11.82 l 12.55,-12.61 v 0 z"
     style="fill:#fab313"
     id="path20"
     inkscape:connector-curvature="0" />
  <path
     d="m 124.58005,100.30318 21.21,-21.350002 h 20 l -14.11,14.24 h 28.36 v 14.230002 h -28.36 l 14.17,14.28 h -20.06 z"
     style="fill:#fab313"
     id="path22"
     inkscape:connector-curvature="0" />
</svg>
